<!DOCTYPE HTML>
<html lang="en_US">
<head>
<meta charset= "UTF-8">
<title>Admin login</title>
</head>
<body>
<h1>Admin login</h1>
<form action="login.php" method="post">

  <table align="centre">
  <tr>
   <td>Username </td><td><input type="text" name="uname" required></td>
   </tr>
     <tr>
   <td>password </td><td><input type="password" name="pass" required></td>
   </tr>
   <tr>
   <td colspan="2" align=centre"><input type="Submit" name="login" value="Login</td>
   </tr>
   </table>
   </form>